{
  "albums": {
    "href": "https://api.spotify.com/v1/search?query=Coldplay&type=album&market=FR&offset=0&limit=5",
    "items": [
      {
        "album_type": "single",
        "artists": [
          {
            "external_urls": {
              "spotify": "https://open.spotify.com/artist/4gzpq5DPGxSnKTe4SA8HAU"
            },
            "href": "https://api.spotify.com/v1/artists/4gzpq5DPGxSnKTe4SA8HAU",
            "id": "4gzpq5DPGxSnKTe4SA8HAU",
            "name": "Coldplay",
            "type": "artist",
            "uri": "spotify:artist:4gzpq5DPGxSnKTe4SA8HAU"
          }
        ],
        "external_urls": {
          "spotify": "https://open.spotify.com/album/6wiPmk3powmcz3G7zr6krg"
        },
        "href": "https://api.spotify.com/v1/albums/6wiPmk3powmcz3G7zr6krg",
        "id": "6wiPmk3powmcz3G7zr6krg",
        "images": [
          {
            "height": 640,
            "url": "https://i.scdn.co/image/ab67616d0000b27366dd30069583ecbb371077c6",
            "width": 640
          },
          {
            "height": 300,
            "url": "https://i.scdn.co/image/ab67616d00001e0266dd30069583ecbb371077c6",
            "width": 300
          },
          {
            "height": 64,
            "url": "https://i.scdn.co/image/ab67616d0000485166dd30069583ecbb371077c6",
            "width": 64
          }
        ],
        "name": "Higher Power",
        "release_date": "2021-05-07",
        "release_date_precision": "day",
        "total_tracks": 1,
        "type": "album",
        "uri": "spotify:album:6wiPmk3powmcz3G7zr6krg"
      },
      {
        "album_type": "album",
        "artists": [
          {
            "external_urls": {
              "spotify": "https://open.spotify.com/artist/4gzpq5DPGxSnKTe4SA8HAU"
            },
            "href": "https://api.spotify.com/v1/artists/4gzpq5DPGxSnKTe4SA8HAU",
            "id": "4gzpq5DPGxSnKTe4SA8HAU",
            "name": "Coldplay",
            "type": "artist",
            "uri": "spotify:artist:4gzpq5DPGxSnKTe4SA8HAU"
          }
        ],
        "external_urls": {
          "spotify": "https://open.spotify.com/album/3cfAM8b8KqJRoIzt3zLKqw"
        },
        "href": "https://api.spotify.com/v1/albums/3cfAM8b8KqJRoIzt3zLKqw",
        "id": "3cfAM8b8KqJRoIzt3zLKqw",
        "images": [
          {
            "height": 640,
            "url": "https://i.scdn.co/image/ab67616d0000b2738ff7c3580d429c8212b9a3b6",
            "width": 640
          },
          {
            "height": 300,
            "url": "https://i.scdn.co/image/ab67616d00001e028ff7c3580d429c8212b9a3b6",
            "width": 300
          },
          {
            "height": 64,
            "url": "https://i.scdn.co/image/ab67616d000048518ff7c3580d429c8212b9a3b6",
            "width": 64
          }
        ],
        "name": "A Head Full of Dreams",
        "release_date": "2015-12-04",
        "release_date_precision": "day",
        "total_tracks": 11,
        "type": "album",
        "uri": "spotify:album:3cfAM8b8KqJRoIzt3zLKqw"
      },
      {
        "album_type": "album",
        "artists": [
          {
            "external_urls": {
              "spotify": "https://open.spotify.com/artist/4gzpq5DPGxSnKTe4SA8HAU"
            },
            "href": "https://api.spotify.com/v1/artists/4gzpq5DPGxSnKTe4SA8HAU",
            "id": "4gzpq5DPGxSnKTe4SA8HAU",
            "name": "Coldplay",
            "type": "artist",
            "uri": "spotify:artist:4gzpq5DPGxSnKTe4SA8HAU"
          }
        ],
        "external_urls": {
          "spotify": "https://open.spotify.com/album/0RHX9XECH8IVI3LNgWDpmQ"
        },
        "href": "https://api.spotify.com/v1/albums/0RHX9XECH8IVI3LNgWDpmQ",
        "id": "0RHX9XECH8IVI3LNgWDpmQ",
        "images": [
          {
            "height": 640,
            "url": "https://i.scdn.co/image/ab67616d0000b27390afd8e4ec6d787114ed6c40",
            "width": 640
          },
          {
            "height": 300,
            "url": "https://i.scdn.co/image/ab67616d00001e0290afd8e4ec6d787114ed6c40",
            "width": 300
          },
          {
            "height": 64,
            "url": "https://i.scdn.co/image/ab67616d0000485190afd8e4ec6d787114ed6c40",
            "width": 64
          }
        ],
        "name": "A Rush of Blood to the Head",
        "release_date": "2002-08-08",
        "release_date_precision": "day",
        "total_tracks": 11,
        "type": "album",
        "uri": "spotify:album:0RHX9XECH8IVI3LNgWDpmQ"
      },
      {
        "album_type": "album",
        "artists": [
          {
            "external_urls": {
              "spotify": "https://open.spotify.com/artist/4gzpq5DPGxSnKTe4SA8HAU"
            },
            "href": "https://api.spotify.com/v1/artists/4gzpq5DPGxSnKTe4SA8HAU",
            "id": "4gzpq5DPGxSnKTe4SA8HAU",
            "name": "Coldplay",
            "type": "artist",
            "uri": "spotify:artist:4gzpq5DPGxSnKTe4SA8HAU"
          }
        ],
        "external_urls": {
          "spotify": "https://open.spotify.com/album/1CEODgTmTwLyabvwd7HBty"
        },
        "href": "https://api.spotify.com/v1/albums/1CEODgTmTwLyabvwd7HBty",
        "id": "1CEODgTmTwLyabvwd7HBty",
        "images": [
          {
            "height": 640,
            "url": "https://i.scdn.co/image/ab67616d0000b273e21cc1db05580b6f2d2a3b6e",
            "width": 640
          },
          {
            "height": 300,
            "url": "https://i.scdn.co/image/ab67616d00001e02e21cc1db05580b6f2d2a3b6e",
            "width": 300
          },
          {
            "height": 64,
            "url": "https://i.scdn.co/image/ab67616d00004851e21cc1db05580b6f2d2a3b6e",
            "width": 64
          }
        ],
        "name": "Viva La Vida or Death and All His Friends",
        "release_date": "2008-05-26",
        "release_date_precision": "day",
        "total_tracks": 10,
        "type": "album",
        "uri": "spotify:album:1CEODgTmTwLyabvwd7HBty"
      },
      {
        "album_type": "album",
        "artists": [
          {
            "external_urls": {
              "spotify": "https://open.spotify.com/artist/4gzpq5DPGxSnKTe4SA8HAU"
            },
            "href": "https://api.spotify.com/v1/artists/4gzpq5DPGxSnKTe4SA8HAU",
            "id": "4gzpq5DPGxSnKTe4SA8HAU",
            "name": "Coldplay",
            "type": "artist",
            "uri": "spotify:artist:4gzpq5DPGxSnKTe4SA8HAU"
          }
        ],
        "external_urls": {
          "spotify": "https://open.spotify.com/album/2R7iJz5uaHjLEVnMkloO18"
        },
        "href": "https://api.spotify.com/v1/albums/2R7iJz5uaHjLEVnMkloO18",
        "id": "2R7iJz5uaHjLEVnMkloO18",
        "images": [
          {
            "height": 640,
            "url": "https://i.scdn.co/image/ab67616d0000b273de0cd11d7b31c3bd1fd5983d",
            "width": 640
          },
          {
            "height": 300,
            "url": "https://i.scdn.co/image/ab67616d00001e02de0cd11d7b31c3bd1fd5983d",
            "width": 300
          },
          {
            "height": 64,
            "url": "https://i.scdn.co/image/ab67616d00004851de0cd11d7b31c3bd1fd5983d",
            "width": 64
          }
        ],
        "name": "Mylo Xyloto",
        "release_date": "2011-10-24",
        "release_date_precision": "day",
        "total_tracks": 14,
        "type": "album",
        "uri": "spotify:album:2R7iJz5uaHjLEVnMkloO18"
      }
    ],
    "limit": 5,
    "next": "https://api.spotify.com/v1/search?query=Coldplay&type=album&market=FR&offset=5&limit=5",
    "offset": 0,
    "previous": null,
    "total": 662
  },
  "artists": {
    "href": "https://api.spotify.com/v1/search?query=Coldplay&type=artist&market=FR&offset=0&limit=5",
    "items": [
      {
        "external_urls": {
          "spotify": "https://open.spotify.com/artist/4gzpq5DPGxSnKTe4SA8HAU"
        },
        "followers": {
          "href": null,
          "total": 30679028
        },
        "genres": [
          "permanent wave",
          "pop"
        ],
        "href": "https://api.spotify.com/v1/artists/4gzpq5DPGxSnKTe4SA8HAU",
        "id": "4gzpq5DPGxSnKTe4SA8HAU",
        "images": [
          {
            "height": 640,
            "url": "https://i.scdn.co/image/ab6761610000e5eb3bcd1c4d6f324498d3de6f8d",
            "width": 640
          },
          {
            "height": 320,
            "url": "https://i.scdn.co/image/ab676161000051743bcd1c4d6f324498d3de6f8d",
            "width": 320
          },
          {
            "height": 160,
            "url": "https://i.scdn.co/image/ab6761610000f1783bcd1c4d6f324498d3de6f8d",
            "width": 160
          }
        ],
        "name": "Coldplay",
        "popularity": 90,
        "type": "artist",
        "uri": "spotify:artist:4gzpq5DPGxSnKTe4SA8HAU"
      },
      {
        "external_urls": {
          "spotify": "https://open.spotify.com/artist/2wKgCt0edHo68HTsrWEJb2"
        },
        "followers": {
          "href": null,
          "total": 368
        },
        "genres": [],
        "href": "https://api.spotify.com/v1/artists/2wKgCt0edHo68HTsrWEJb2",
        "id": "2wKgCt0edHo68HTsrWEJb2",
        "images": [],
        "name": "Karaoke - Coldplay",
        "popularity": 2,
        "type": "artist",
        "uri": "spotify:artist:2wKgCt0edHo68HTsrWEJb2"
      },
      {
        "external_urls": {
          "spotify": "https://open.spotify.com/artist/1ztMJAoRFWrN0B0mM880Gl"
        },
        "followers": {
          "href": null,
          "total": 485
        },
        "genres": [],
        "href": "https://api.spotify.com/v1/artists/1ztMJAoRFWrN0B0mM880Gl",
        "id": "1ztMJAoRFWrN0B0mM880Gl",
        "images": [],
        "name": "Coldplay Metal Tribute",
        "popularity": 4,
        "type": "artist",
        "uri": "spotify:artist:1ztMJAoRFWrN0B0mM880Gl"
      },
      {
        "external_urls": {
          "spotify": "https://open.spotify.com/artist/0WHCs1nv58vHXWrb3AdmOw"
        },
        "followers": {
          "href": null,
          "total": 123
        },
        "genres": [],
        "href": "https://api.spotify.com/v1/artists/0WHCs1nv58vHXWrb3AdmOw",
        "id": "0WHCs1nv58vHXWrb3AdmOw",
        "images": [],
        "name": "Coldplay, Base Karaoke + Choirs",
        "popularity": 5,
        "type": "artist",
        "uri": "spotify:artist:0WHCs1nv58vHXWrb3AdmOw"
      },
      {
        "external_urls": {
          "spotify": "https://open.spotify.com/artist/3mGdGgKs8aNdTlJ89d6Gkp"
        },
        "followers": {
          "href": null,
          "total": 183
        },
        "genres": [],
        "href": "https://api.spotify.com/v1/artists/3mGdGgKs8aNdTlJ89d6Gkp",
        "id": "3mGdGgKs8aNdTlJ89d6Gkp",
        "images": [
          {
            "height": 640,
            "url": "https://i.scdn.co/image/ab67616d0000b2738cba3250c06af056811fc594",
            "width": 640
          },
          {
            "height": 300,
            "url": "https://i.scdn.co/image/ab67616d00001e028cba3250c06af056811fc594",
            "width": 300
          },
          {
            "height": 64,
            "url": "https://i.scdn.co/image/ab67616d000048518cba3250c06af056811fc594",
            "width": 64
          }
        ],
        "name": "Karaoke Soundtrack - Originally Performed By Coldplay",
        "popularity": 9,
        "type": "artist",
        "uri": "spotify:artist:3mGdGgKs8aNdTlJ89d6Gkp"
      }
    ],
    "limit": 5,
    "next": null,
    "offset": 0,
    "previous": null,
    "total": 5
  },
  "tracks": {
    "href": "https://api.spotify.com/v1/search?query=Coldplay&type=track&market=FR&offset=0&limit=5",
    "items": [
      {
        "album": {
          "album_type": "single",
          "artists": [
            {
              "external_urls": {
                "spotify": "https://open.spotify.com/artist/4gzpq5DPGxSnKTe4SA8HAU"
              },
              "href": "https://api.spotify.com/v1/artists/4gzpq5DPGxSnKTe4SA8HAU",
              "id": "4gzpq5DPGxSnKTe4SA8HAU",
              "name": "Coldplay",
              "type": "artist",
              "uri": "spotify:artist:4gzpq5DPGxSnKTe4SA8HAU"
            }
          ],
          "external_urls": {
            "spotify": "https://open.spotify.com/album/6wiPmk3powmcz3G7zr6krg"
          },
          "href": "https://api.spotify.com/v1/albums/6wiPmk3powmcz3G7zr6krg",
          "id": "6wiPmk3powmcz3G7zr6krg",
          "images": [
            {
              "height": 640,
              "url": "https://i.scdn.co/image/ab67616d0000b27366dd30069583ecbb371077c6",
              "width": 640
            },
            {
              "height": 300,
              "url": "https://i.scdn.co/image/ab67616d00001e0266dd30069583ecbb371077c6",
              "width": 300
            },
            {
              "height": 64,
              "url": "https://i.scdn.co/image/ab67616d0000485166dd30069583ecbb371077c6",
              "width": 64
            }
          ],
          "name": "Higher Power",
          "release_date": "2021-05-07",
          "release_date_precision": "day",
          "total_tracks": 1,
          "type": "album",
          "uri": "spotify:album:6wiPmk3powmcz3G7zr6krg"
        },
        "artists": [
          {
            "external_urls": {
              "spotify": "https://open.spotify.com/artist/4gzpq5DPGxSnKTe4SA8HAU"
            },
            "href": "https://api.spotify.com/v1/artists/4gzpq5DPGxSnKTe4SA8HAU",
            "id": "4gzpq5DPGxSnKTe4SA8HAU",
            "name": "Coldplay",
            "type": "artist",
            "uri": "spotify:artist:4gzpq5DPGxSnKTe4SA8HAU"
          }
        ],
        "disc_number": 1,
        "duration_ms": 211294,
        "explicit": false,
        "external_ids": {
          "isrc": "GBAYE2100379"
        },
        "external_urls": {
          "spotify": "https://open.spotify.com/track/0939D7aT18uBDS2MTjWzct"
        },
        "href": "https://api.spotify.com/v1/tracks/0939D7aT18uBDS2MTjWzct",
        "id": "0939D7aT18uBDS2MTjWzct",
        "is_local": false,
        "is_playable": true,
        "name": "Higher Power",
        "popularity": 85,
        "preview_url": "https://p.scdn.co/mp3-preview/494d59484c6dbe0b181e7c0371e4aefd1c04a2d2?cid=774b29d4f13844c495f206cafdad9c86",
        "track_number": 1,
        "type": "track",
        "uri": "spotify:track:0939D7aT18uBDS2MTjWzct"
      },
      {
        "album": {
          "album_type": "album",
          "artists": [
            {
              "external_urls": {
                "spotify": "https://open.spotify.com/artist/4gzpq5DPGxSnKTe4SA8HAU"
              },
              "href": "https://api.spotify.com/v1/artists/4gzpq5DPGxSnKTe4SA8HAU",
              "id": "4gzpq5DPGxSnKTe4SA8HAU",
              "name": "Coldplay",
              "type": "artist",
              "uri": "spotify:artist:4gzpq5DPGxSnKTe4SA8HAU"
            }
          ],
          "external_urls": {
            "spotify": "https://open.spotify.com/album/1CEODgTmTwLyabvwd7HBty"
          },
          "href": "https://api.spotify.com/v1/albums/1CEODgTmTwLyabvwd7HBty",
          "id": "1CEODgTmTwLyabvwd7HBty",
          "images": [
            {
              "height": 640,
              "url": "https://i.scdn.co/image/ab67616d0000b273e21cc1db05580b6f2d2a3b6e",
              "width": 640
            },
            {
              "height": 300,
              "url": "https://i.scdn.co/image/ab67616d00001e02e21cc1db05580b6f2d2a3b6e",
              "width": 300
            },
            {
              "height": 64,
              "url": "https://i.scdn.co/image/ab67616d00004851e21cc1db05580b6f2d2a3b6e",
              "width": 64
            }
          ],
          "name": "Viva La Vida or Death and All His Friends",
          "release_date": "2008-05-26",
          "release_date_precision": "day",
          "total_tracks": 10,
          "type": "album",
          "uri": "spotify:album:1CEODgTmTwLyabvwd7HBty"
        },
        "artists": [
          {
            "external_urls": {
              "spotify": "https://open.spotify.com/artist/4gzpq5DPGxSnKTe4SA8HAU"
            },
            "href": "https://api.spotify.com/v1/artists/4gzpq5DPGxSnKTe4SA8HAU",
            "id": "4gzpq5DPGxSnKTe4SA8HAU",
            "name": "Coldplay",
            "type": "artist",
            "uri": "spotify:artist:4gzpq5DPGxSnKTe4SA8HAU"
          }
        ],
        "disc_number": 1,
        "duration_ms": 242373,
        "explicit": false,
        "external_ids": {
          "isrc": "GBAYE0800265"
        },
        "external_urls": {
          "spotify": "https://open.spotify.com/track/1mea3bSkSGXuIRvnydlB5b"
        },
        "href": "https://api.spotify.com/v1/tracks/1mea3bSkSGXuIRvnydlB5b",
        "id": "1mea3bSkSGXuIRvnydlB5b",
        "is_local": false,
        "is_playable": true,
        "name": "Viva La Vida",
        "popularity": 79,
        "preview_url": "https://p.scdn.co/mp3-preview/ceb88eddfa4bac6be64e90606741ebedf8501893?cid=774b29d4f13844c495f206cafdad9c86",
        "track_number": 7,
        "type": "track",
        "uri": "spotify:track:1mea3bSkSGXuIRvnydlB5b"
      },
      {
        "album": {
          "album_type": "album",
          "artists": [
            {
              "external_urls": {
                "spotify": "https://open.spotify.com/artist/4gzpq5DPGxSnKTe4SA8HAU"
              },
              "href": "https://api.spotify.com/v1/artists/4gzpq5DPGxSnKTe4SA8HAU",
              "id": "4gzpq5DPGxSnKTe4SA8HAU",
              "name": "Coldplay",
              "type": "artist",
              "uri": "spotify:artist:4gzpq5DPGxSnKTe4SA8HAU"
            }
          ],
          "external_urls": {
            "spotify": "https://open.spotify.com/album/3cfAM8b8KqJRoIzt3zLKqw"
          },
          "href": "https://api.spotify.com/v1/albums/3cfAM8b8KqJRoIzt3zLKqw",
          "id": "3cfAM8b8KqJRoIzt3zLKqw",
          "images": [
            {
              "height": 640,
              "url": "https://i.scdn.co/image/ab67616d0000b2738ff7c3580d429c8212b9a3b6",
              "width": 640
            },
            {
              "height": 300,
              "url": "https://i.scdn.co/image/ab67616d00001e028ff7c3580d429c8212b9a3b6",
              "width": 300
            },
            {
              "height": 64,
              "url": "https://i.scdn.co/image/ab67616d000048518ff7c3580d429c8212b9a3b6",
              "width": 64
            }
          ],
          "name": "A Head Full of Dreams",
          "release_date": "2015-12-04",
          "release_date_precision": "day",
          "total_tracks": 11,
          "type": "album",
          "uri": "spotify:album:3cfAM8b8KqJRoIzt3zLKqw"
        },
        "artists": [
          {
            "external_urls": {
              "spotify": "https://open.spotify.com/artist/4gzpq5DPGxSnKTe4SA8HAU"
            },
            "href": "https://api.spotify.com/v1/artists/4gzpq5DPGxSnKTe4SA8HAU",
            "id": "4gzpq5DPGxSnKTe4SA8HAU",
            "name": "Coldplay",
            "type": "artist",
            "uri": "spotify:artist:4gzpq5DPGxSnKTe4SA8HAU"
          }
        ],
        "disc_number": 1,
        "duration_ms": 258266,
        "explicit": false,
        "external_ids": {
          "isrc": "GBAYE1500979"
        },
        "external_urls": {
          "spotify": "https://open.spotify.com/track/3RiPr603aXAoi4GHyXx0uy"
        },
        "href": "https://api.spotify.com/v1/tracks/3RiPr603aXAoi4GHyXx0uy",
        "id": "3RiPr603aXAoi4GHyXx0uy",
        "is_local": false,
        "is_playable": true,
        "name": "Hymn for the Weekend",
        "popularity": 81,
        "preview_url": "https://p.scdn.co/mp3-preview/723c09e9179390c3d17fb645c2c91a21eacee798?cid=774b29d4f13844c495f206cafdad9c86",
        "track_number": 3,
        "type": "track",
        "uri": "spotify:track:3RiPr603aXAoi4GHyXx0uy"
      },
      {
        "album": {
          "album_type": "album",
          "artists": [
            {
              "external_urls": {
                "spotify": "https://open.spotify.com/artist/69GGBxA162lTqCwzJG5jLp"
              },
              "href": "https://api.spotify.com/v1/artists/69GGBxA162lTqCwzJG5jLp",
              "id": "69GGBxA162lTqCwzJG5jLp",
              "name": "The Chainsmokers",
              "type": "artist",
              "uri": "spotify:artist:69GGBxA162lTqCwzJG5jLp"
            }
          ],
          "external_urls": {
            "spotify": "https://open.spotify.com/album/4JPguzRps3kuWDD5GS6oXr"
          },
          "href": "https://api.spotify.com/v1/albums/4JPguzRps3kuWDD5GS6oXr",
          "id": "4JPguzRps3kuWDD5GS6oXr",
          "images": [
            {
              "height": 640,
              "url": "https://i.scdn.co/image/ab67616d0000b2730c13d3d5a503c84fcc60ae94",
              "width": 640
            },
            {
              "height": 300,
              "url": "https://i.scdn.co/image/ab67616d00001e020c13d3d5a503c84fcc60ae94",
              "width": 300
            },
            {
              "height": 64,
              "url": "https://i.scdn.co/image/ab67616d000048510c13d3d5a503c84fcc60ae94",
              "width": 64
            }
          ],
          "name": "Memories...Do Not Open",
          "release_date": "2017-04-07",
          "release_date_precision": "day",
          "total_tracks": 12,
          "type": "album",
          "uri": "spotify:album:4JPguzRps3kuWDD5GS6oXr"
        },
        "artists": [
          {
            "external_urls": {
              "spotify": "https://open.spotify.com/artist/69GGBxA162lTqCwzJG5jLp"
            },
            "href": "https://api.spotify.com/v1/artists/69GGBxA162lTqCwzJG5jLp",
            "id": "69GGBxA162lTqCwzJG5jLp",
            "name": "The Chainsmokers",
            "type": "artist",
            "uri": "spotify:artist:69GGBxA162lTqCwzJG5jLp"
          },
          {
            "external_urls": {
              "spotify": "https://open.spotify.com/artist/4gzpq5DPGxSnKTe4SA8HAU"
            },
            "href": "https://api.spotify.com/v1/artists/4gzpq5DPGxSnKTe4SA8HAU",
            "id": "4gzpq5DPGxSnKTe4SA8HAU",
            "name": "Coldplay",
            "type": "artist",
            "uri": "spotify:artist:4gzpq5DPGxSnKTe4SA8HAU"
          }
        ],
        "disc_number": 1,
        "duration_ms": 247160,
        "explicit": false,
        "external_ids": {
          "isrc": "USQX91700278"
        },
        "external_urls": {
          "spotify": "https://open.spotify.com/track/6RUKPb4LETWmmr3iAEQktW"
        },
        "href": "https://api.spotify.com/v1/tracks/6RUKPb4LETWmmr3iAEQktW",
        "id": "6RUKPb4LETWmmr3iAEQktW",
        "is_local": false,
        "is_playable": true,
        "name": "Something Just Like This",
        "popularity": 83,
        "preview_url": "https://p.scdn.co/mp3-preview/cb1ae1f9e2f874dd2d19e4c29edb552777eb1e7a?cid=774b29d4f13844c495f206cafdad9c86",
        "track_number": 5,
        "type": "track",
        "uri": "spotify:track:6RUKPb4LETWmmr3iAEQktW"
      },
      {
        "album": {
          "album_type": "album",
          "artists": [
            {
              "external_urls": {
                "spotify": "https://open.spotify.com/artist/4gzpq5DPGxSnKTe4SA8HAU"
              },
              "href": "https://api.spotify.com/v1/artists/4gzpq5DPGxSnKTe4SA8HAU",
              "id": "4gzpq5DPGxSnKTe4SA8HAU",
              "name": "Coldplay",
              "type": "artist",
              "uri": "spotify:artist:4gzpq5DPGxSnKTe4SA8HAU"
            }
          ],
          "external_urls": {
            "spotify": "https://open.spotify.com/album/0RHX9XECH8IVI3LNgWDpmQ"
          },
          "href": "https://api.spotify.com/v1/albums/0RHX9XECH8IVI3LNgWDpmQ",
          "id": "0RHX9XECH8IVI3LNgWDpmQ",
          "images": [
            {
              "height": 640,
              "url": "https://i.scdn.co/image/ab67616d0000b27390afd8e4ec6d787114ed6c40",
              "width": 640
            },
            {
              "height": 300,
              "url": "https://i.scdn.co/image/ab67616d00001e0290afd8e4ec6d787114ed6c40",
              "width": 300
            },
            {
              "height": 64,
              "url": "https://i.scdn.co/image/ab67616d0000485190afd8e4ec6d787114ed6c40",
              "width": 64
            }
          ],
          "name": "A Rush of Blood to the Head",
          "release_date": "2002-08-08",
          "release_date_precision": "day",
          "total_tracks": 11,
          "type": "album",
          "uri": "spotify:album:0RHX9XECH8IVI3LNgWDpmQ"
        },
        "artists": [
          {
            "external_urls": {
              "spotify": "https://open.spotify.com/artist/4gzpq5DPGxSnKTe4SA8HAU"
            },
            "href": "https://api.spotify.com/v1/artists/4gzpq5DPGxSnKTe4SA8HAU",
            "id": "4gzpq5DPGxSnKTe4SA8HAU",
            "name": "Coldplay",
            "type": "artist",
            "uri": "spotify:artist:4gzpq5DPGxSnKTe4SA8HAU"
          }
        ],
        "disc_number": 1,
        "duration_ms": 309600,
        "explicit": false,
        "external_ids": {
          "isrc": "GBAYE0200772"
        },
        "external_urls": {
          "spotify": "https://open.spotify.com/track/75JFxkI2RXiU7L9VXzMkle"
        },
        "href": "https://api.spotify.com/v1/tracks/75JFxkI2RXiU7L9VXzMkle",
        "id": "75JFxkI2RXiU7L9VXzMkle",
        "is_local": false,
        "is_playable": true,
        "name": "The Scientist",
        "popularity": 83,
        "preview_url": "https://p.scdn.co/mp3-preview/629609b84c9e4a008385440d9908d89e622b5fa1?cid=774b29d4f13844c495f206cafdad9c86",
        "track_number": 4,
        "type": "track",
        "uri": "spotify:track:75JFxkI2RXiU7L9VXzMkle"
      }
    ],
    "limit": 5,
    "next": "https://api.spotify.com/v1/search?query=Coldplay&type=track&market=FR&offset=5&limit=5",
    "offset": 0,
    "previous": null,
    "total": 6021
  }
}
